9 Ben W – The Economic Effects of the World Cup: Case Study on Brazil World Cup
…
ℹ Use `spec()` to retrieve the full column specification for this data.
ℹ Specify the column types or set `show_col_types = FALSE` to quiet this message.

world_cup |>
  clean_names() |>            # standardizes column names to snake_case
  remove_empty("rows") |>     # removes empty rows
  remove_empty("cols") |>     # removes empty columns
  remove_constant()            # removes columns with only 1 unique value

# A tibble: 900 × 15
    year country city    stage home_team away_team home_score away_score outcome
   <dbl> <chr>   <chr>   <chr> <chr>     <chr>          <dbl>      <dbl> <chr>  
 1  1930 Uruguay Montev… Grou… France    Mexico             4          1 H      
 2  1930 Uruguay Montev… Grou… Belgium   United S…          0          3 A      
 3  1930 Uruguay Montev… Grou… Brazil    Yugoslav…          1          2 A      
 4  1930 Uruguay Montev… Grou… Peru      Romania            1          3 A      
 5  1930 Uruguay Montev… Grou… Argentina France             1          0 H      
 6  1930 Uruguay Montev… Grou… Chile     Mexico             3          0 H      
 7  1930 Uruguay Montev… Grou… Bolivia   Yugoslav…          0          4 A      
 8  1930 Uruguay Montev… Grou… Paraguay  United S…          0          3 A      
 9  1930 Uruguay Montev… Grou… Uruguay   Peru               1          0 H      
10  1930 Uruguay Montev… Grou… Argentina Mexico             6          3 H      
# ℹ 890 more rows
# ℹ 6 more variables: win_conditions <chr>, winning_team <chr>,
#   losing_team <chr>, date <date>, month <chr>, dayofweek <chr>
…
BRA_gdp_long <- pivot_longer(BRA_gdp, cols = everything(), names_to = "Year", values_to = "GDP($)")

BRA_pop_long <- pivot_longer(BRA_pop, cols = everything(), names_to = "Year", values_to = "Population")

BRA_tour_long <- pivot_longer(BRA_tour, cols = everything(), names_to = "Year", values_to = "NTourists")|>
  filter(!is.na(NTourists))|>
  mutate(Year = as.numeric(Year)) |>
  mutate(Tourists_Millions = NTourists / 1e6)

BRA_pop_long |>
  filter(Population != 2024)

# A tibble: 64 × 2
   Year  Population
   <chr>      <dbl>
 1 1960    72388126
 2 1961    74605447
 3 1962    76865323
 4 1963    79164235
 5 1964    81488595
 6 1965    83817583
 7 1966    86139359
 8 1967    88446124
 9 1968    90741240
10 1969    93045777
# ℹ 54 more rows
…
