6 Nolan R – The Economic Effects of the World Cup: Case Study on Brazil World Cup
…
6  Nolan R

 Code

# A tibble: 900 × 15
    year country city    stage home_team away_team home_score away_score outcome
   <dbl> <chr>   <chr>   <chr> <chr>     <chr>          <dbl>      <dbl> <chr>  
 1  1930 Uruguay Montev… Grou… France    Mexico             4          1 H      
 2  1930 Uruguay Montev… Grou… Belgium   United S…          0          3 A      
 3  1930 Uruguay Montev… Grou… Brazil    Yugoslav…          1          2 A      
 4  1930 Uruguay Montev… Grou… Peru      Romania            1          3 A      
 5  1930 Uruguay Montev… Grou… Argentina France             1          0 H      
 6  1930 Uruguay Montev… Grou… Chile     Mexico             3          0 H      
 7  1930 Uruguay Montev… Grou… Bolivia   Yugoslav…          0          4 A      
 8  1930 Uruguay Montev… Grou… Paraguay  United S…          0          3 A      
 9  1930 Uruguay Montev… Grou… Uruguay   Peru               1          0 H      
10  1930 Uruguay Montev… Grou… Argentina Mexico             6          3 H      
# ℹ 890 more rows
# ℹ 6 more variables: win_conditions <chr>, winning_team <chr>,
#   losing_team <chr>, date <date>, month <chr>, dayofweek <chr>

# A tibble: 268 × 3
   `Data Source`               `World Development Indicators` ...3              
   <chr>                       <chr>                          <chr>             
 1 Last Updated Date           2025-03-24                      <NA>             
 2 Country Name                Country Code                   "Indicator Name,I…
 3 Aruba                       ABW                            "GDP (current US$…
 4 Africa Eastern and Southern AFE                            "GDP (current US$…
 5 Afghanistan                 AFG                            "GDP (current US$…
 6 Africa Western and Central  AFW                            "GDP (current US$…
 7 Angola                      AGO                            "GDP (current US$…
 8 Albania                     ALB                            "GDP (current US$…
 9 Andorra                     AND                            "GDP (current US$…
10 Arab World                  ARB                            "GDP (current US$…
# ℹ 258 more rows

# A tibble: 265 × 6
   `Country Code` Region                IncomeGroup SpecialNotes TableName ...6 
   <chr>          <chr>                 <chr>       <chr>        <chr>     <lgl>
 1 ABW            Latin America & Cari… High income  <NA>        Aruba     NA   
 2 AFE            <NA>                  <NA>        "26 countri… Africa E… NA   
 3 AFG            South Asia            Low income  "The report… Afghanis… NA   
 4 AFW            <NA>                  <NA>        "22 countri… Africa W… NA   
 5 AGO            Sub-Saharan Africa    Lower midd… "The World … Angola    NA   
 6 ALB            Europe & Central Asia Upper midd…  <NA>        Albania   NA   
 7 AND            Europe & Central Asia High income  <NA>        Andorra   NA   
 8 ARB            <NA>                  <NA>        "Arab World… Arab Wor… NA   
 9 ARE            Middle East & North … High income  <NA>        United A… NA   
10 ARG            Latin America & Cari… Upper midd… "The World … Argentina NA   
# ℹ 255 more rows
…
